<?xml version="1.0" encoding="UTF-8" standalone="no"?>
<!-- Created with Inkscape (http://www.inkscape.org/) -->

<svg
   xmlns:svg="http://www.w3.org/2000/svg"
   xmlns="http://www.w3.org/2000/svg"
   xmlns:xlink="http://www.w3.org/1999/xlink"
   version="1.1"
   width="128"
   height="128"
   id="svg2816">
  <defs
     id="defs2818">
    <linearGradient
       id="linearGradient3652">
      <stop
         id="stop3654"
         style="stop-color:#000000;stop-opacity:0.21531101"
         offset="0" />
      <stop
         id="stop3656"
         style="stop-color:#ffffff;stop-opacity:1"
         offset="1" />
    </linearGradient>
    <linearGradient
       id="linearGradient3636">
      <stop
         id="stop3638"
         style="stop-color:#d9d9d9;stop-opacity:1"
         offset="0" />
      <stop
         id="stop3644"
         style="stop-color:#c3c3cf;stop-opacity:1"
         offset="0.5" />
      <stop
         id="stop3640"
         style="stop-color:#999999;stop-opacity:1"
         offset="1" />
    </linearGradient>
    <linearGradient
       id="linearGradient3758">
      <stop
         id="stop3760"
         style="stop-color:#333333;stop-opacity:1"
         offset="0" />
      <stop
         id="stop3762"
         style="stop-color:#333333;stop-opacity:0"
         offset="1" />
    </linearGradient>
    <linearGradient
       id="linearGradient3736">
      <stop
         id="stop3738"
         style="stop-color:#ffffff;stop-opacity:0"
         offset="0" />
      <stop
         id="stop3740"
         style="stop-color:#333333;stop-opacity:0.72791517"
         offset="1" />
    </linearGradient>
    <linearGradient
       id="linearGradient3708">
      <stop
         id="stop3712"
         style="stop-color:#ffffff;stop-opacity:0"
         offset="0" />
      <stop
         id="stop3714"
         style="stop-color:#333333;stop-opacity:1"
         offset="1" />
    </linearGradient>
    <linearGradient
       id="linearGradient3694">
      <stop
         id="stop3696"
         style="stop-color:#ffffff;stop-opacity:1"
         offset="0" />
      <stop
         id="stop3700"
         style="stop-color:#ffffff;stop-opacity:0.67464113"
         offset="0.5" />
      <stop
         id="stop3698"
         style="stop-color:#ffffff;stop-opacity:0"
         offset="1" />
    </linearGradient>
    <linearGradient
       id="linearGradient3649">
      <stop
         id="stop3651"
         style="stop-color:#c9c9c9;stop-opacity:1"
         offset="0" />
      <stop
         id="stop3653"
         style="stop-color:#f0f0f0;stop-opacity:1"
         offset="1" />
    </linearGradient>
    <linearGradient
       id="linearGradient3631">
      <stop
         id="stop3633"
         style="stop-color:#dddddd;stop-opacity:0.62190813"
         offset="0" />
      <stop
         id="stop3635"
         style="stop-color:#ffffff;stop-opacity:1"
         offset="1" />
    </linearGradient>
    <linearGradient
       x1="102"
       y1="14"
       x2="92"
       y2="24"
       id="linearGradient3637"
       xlink:href="#linearGradient3649"
       gradientUnits="userSpaceOnUse"
       gradientTransform="matrix(1.4444444,0,0,1.4444444,-48.888889,294.33333)" />
    <filter
       color-interpolation-filters="sRGB"
       id="filter3676">
      <feGaussianBlur
         id="feGaussianBlur3678"
         stdDeviation="0.36000001" />
    </filter>
    <filter
       color-interpolation-filters="sRGB"
       id="filter3610">
      <feGaussianBlur
         id="feGaussianBlur3612"
         stdDeviation="1.56" />
    </filter>
    <linearGradient
       x1="56.65461"
       y1="5.5"
       x2="56.65461"
       y2="122.50977"
       id="linearGradient3692"
       xlink:href="#linearGradient3694"
       gradientUnits="userSpaceOnUse"
       gradientTransform="matrix(0.98252641,0,0,0.9921278,0.77111153,297.96672)" />
    <filter
       color-interpolation-filters="sRGB"
       id="filter3702">
      <feGaussianBlur
         id="feGaussianBlur3704"
         stdDeviation="0.51369811" />
    </filter>
    <linearGradient
       x1="64"
       y1="122.5"
       x2="64"
       y2="93.860451"
       id="linearGradient3748"
       xlink:href="#linearGradient3758"
       gradientUnits="userSpaceOnUse" />
    <linearGradient
       x1="56.65461"
       y1="5.5"
       x2="56.65461"
       y2="122.50977"
       id="linearGradient3776"
       xlink:href="#linearGradient3694"
       gradientUnits="userSpaceOnUse"
       gradientTransform="matrix(0.98252641,0,0,0.9921278,0.77111153,297.96672)" />
    <filter
       color-interpolation-filters="sRGB"
       id="filter3778">
      <feGaussianBlur
         id="feGaussianBlur3780"
         stdDeviation="0.51837461" />
    </filter>
    <filter
       color-interpolation-filters="sRGB"
       id="filter3782">
      <feGaussianBlur
         id="feGaussianBlur3784"
         stdDeviation="1.0410113" />
    </filter>
    <linearGradient
       x1="64"
       y1="122"
       x2="64"
       y2="76.36528"
       id="linearGradient3794"
       xlink:href="#linearGradient3631"
       gradientUnits="userSpaceOnUse" />
    <linearGradient
       x1="56.65461"
       y1="5.5"
       x2="56.65461"
       y2="122.50977"
       id="linearGradient3805"
       xlink:href="#linearGradient3694"
       gradientUnits="userSpaceOnUse"
       gradientTransform="matrix(0.98252641,0,0,0.9921278,0.77111153,297.96672)" />
    <linearGradient
       x1="56.65461"
       y1="5.5"
       x2="56.65461"
       y2="122.50977"
       id="linearGradient3807"
       xlink:href="#linearGradient3694"
       gradientUnits="userSpaceOnUse"
       gradientTransform="matrix(0.98252641,0,0,0.9921278,0.77111153,297.96672)" />
    <linearGradient
       x1="102"
       y1="14"
       x2="92"
       y2="24"
       id="linearGradient3809"
       xlink:href="#linearGradient3649"
       gradientUnits="userSpaceOnUse"
       gradientTransform="matrix(1.4444444,0,0,1.4444444,-48.888889,294.33333)" />
    <linearGradient
       x1="64"
       y1="122.5"
       x2="64"
       y2="93.860451"
       id="linearGradient3811"
       xlink:href="#linearGradient3758"
       gradientUnits="userSpaceOnUse" />
    <linearGradient
       x1="62"
       y1="413"
       x2="62"
       y2="419"
       id="linearGradient2876"
       xlink:href="#linearGradient3636"
       gradientUnits="userSpaceOnUse" />
    <linearGradient
       x1="102"
       y1="14"
       x2="92"
       y2="24"
       id="linearGradient2880"
       xlink:href="#linearGradient3649"
       gradientUnits="userSpaceOnUse"
       gradientTransform="matrix(1.4444444,0,0,1.4444444,-48.888889,294.33333)" />
    <filter
       color-interpolation-filters="sRGB"
       id="filter3728">
      <feGaussianBlur
         id="feGaussianBlur3730"
         stdDeviation="0.57810125" />
    </filter>
    <linearGradient
       x1="62"
       y1="403"
       x2="62"
       y2="323"
       id="linearGradient3916"
       xlink:href="#linearGradient5884"
       gradientUnits="userSpaceOnUse" />
    <linearGradient
       id="linearGradient5884">
      <stop
         id="stop5886"
         style="stop-color:#202e43;stop-opacity:1"
         offset="0" />
      <stop
         id="stop5888"
         style="stop-color:#3e5982;stop-opacity:1"
         offset="1" />
    </linearGradient>
    <linearGradient
       x1="62"
       y1="403"
       x2="62"
       y2="323"
       id="linearGradient3934"
       xlink:href="#linearGradient5884"
       gradientUnits="userSpaceOnUse" />
    <linearGradient
       id="linearGradient3936">
      <stop
         id="stop3938"
         style="stop-color:#202e43;stop-opacity:1"
         offset="0" />
      <stop
         id="stop3940"
         style="stop-color:#3e5982;stop-opacity:1"
         offset="1" />
    </linearGradient>
    <linearGradient
       x1="62"
       y1="403"
       x2="62"
       y2="323"
       id="linearGradient3942"
       xlink:href="#linearGradient5884"
       gradientUnits="userSpaceOnUse" />
    <linearGradient
       id="linearGradient3944">
      <stop
         id="stop3946"
         style="stop-color:#202e43;stop-opacity:1"
         offset="0" />
      <stop
         id="stop3948"
         style="stop-color:#3e5982;stop-opacity:1"
         offset="1" />
    </linearGradient>
    <linearGradient
       x1="62"
       y1="403"
       x2="62"
       y2="323"
       id="linearGradient3950"
       xlink:href="#linearGradient5884"
       gradientUnits="userSpaceOnUse" />
    <linearGradient
       id="linearGradient3952">
      <stop
         id="stop3954"
         style="stop-color:#202e43;stop-opacity:1"
         offset="0" />
      <stop
         id="stop3956"
         style="stop-color:#3e5982;stop-opacity:1"
         offset="1" />
    </linearGradient>
    <linearGradient
       x1="62"
       y1="403"
       x2="62"
       y2="323"
       id="linearGradient3958"
       xlink:href="#linearGradient5884"
       gradientUnits="userSpaceOnUse" />
    <linearGradient
       id="linearGradient3960">
      <stop
         id="stop3962"
         style="stop-color:#202e43;stop-opacity:1"
         offset="0" />
      <stop
         id="stop3964"
         style="stop-color:#3e5982;stop-opacity:1"
         offset="1" />
    </linearGradient>
    <linearGradient
       x1="62"
       y1="403"
       x2="62"
       y2="323"
       id="linearGradient3966"
       xlink:href="#linearGradient5884"
       gradientUnits="userSpaceOnUse" />
    <linearGradient
       id="linearGradient3968">
      <stop
         id="stop3970"
         style="stop-color:#202e43;stop-opacity:1"
         offset="0" />
      <stop
         id="stop3972"
         style="stop-color:#3e5982;stop-opacity:1"
         offset="1" />
    </linearGradient>
    <linearGradient
       x1="62"
       y1="403"
       x2="62"
       y2="323"
       id="linearGradient3974"
       xlink:href="#linearGradient5884"
       gradientUnits="userSpaceOnUse" />
    <linearGradient
       id="linearGradient3976">
      <stop
         id="stop3978"
         style="stop-color:#202e43;stop-opacity:1"
         offset="0" />
      <stop
         id="stop3980"
         style="stop-color:#3e5982;stop-opacity:1"
         offset="1" />
    </linearGradient>
    <linearGradient
       x1="62"
       y1="403"
       x2="62"
       y2="323"
       id="linearGradient3982"
       xlink:href="#linearGradient5884"
       gradientUnits="userSpaceOnUse" />
    <linearGradient
       id="linearGradient3984">
      <stop
         id="stop3986"
         style="stop-color:#202e43;stop-opacity:1"
         offset="0" />
      <stop
         id="stop3988"
         style="stop-color:#3e5982;stop-opacity:1"
         offset="1" />
    </linearGradient>
    <linearGradient
       x1="62"
       y1="403"
       x2="62"
       y2="323"
       id="linearGradient3990"
       xlink:href="#linearGradient5884"
       gradientUnits="userSpaceOnUse" />
    <linearGradient
       id="linearGradient3992">
      <stop
         id="stop3994"
         style="stop-color:#202e43;stop-opacity:1"
         offset="0" />
      <stop
         id="stop3996"
         style="stop-color:#3e5982;stop-opacity:1"
         offset="1" />
    </linearGradient>
    <linearGradient
       x1="62"
       y1="403"
       x2="62"
       y2="323"
       id="linearGradient3998"
       xlink:href="#linearGradient5884"
       gradientUnits="userSpaceOnUse" />
    <linearGradient
       id="linearGradient4000">
      <stop
         id="stop4002"
         style="stop-color:#202e43;stop-opacity:1"
         offset="0" />
      <stop
         id="stop4004"
         style="stop-color:#3e5982;stop-opacity:1"
         offset="1" />
    </linearGradient>
    <linearGradient
       x1="62"
       y1="403"
       x2="62"
       y2="323"
       id="linearGradient4006"
       xlink:href="#linearGradient5884"
       gradientUnits="userSpaceOnUse" />
    <linearGradient
       id="linearGradient4008">
      <stop
         id="stop4010"
         style="stop-color:#202e43;stop-opacity:1"
         offset="0" />
      <stop
         id="stop4012"
         style="stop-color:#3e5982;stop-opacity:1"
         offset="1" />
    </linearGradient>
    <linearGradient
       x1="62"
       y1="403"
       x2="62"
       y2="323"
       id="linearGradient4014"
       xlink:href="#linearGradient5884"
       gradientUnits="userSpaceOnUse" />
    <linearGradient
       id="linearGradient4016">
      <stop
         id="stop4018"
         style="stop-color:#202e43;stop-opacity:1"
         offset="0" />
      <stop
         id="stop4020"
         style="stop-color:#3e5982;stop-opacity:1"
         offset="1" />
    </linearGradient>
    <linearGradient
       x1="62"
       y1="403"
       x2="62"
       y2="323"
       id="linearGradient4022"
       xlink:href="#linearGradient5884"
       gradientUnits="userSpaceOnUse" />
    <linearGradient
       id="linearGradient4024">
      <stop
         id="stop4026"
         style="stop-color:#202e43;stop-opacity:1"
         offset="0" />
      <stop
         id="stop4028"
         style="stop-color:#3e5982;stop-opacity:1"
         offset="1" />
    </linearGradient>
    <linearGradient
       x1="62"
       y1="403"
       x2="62"
       y2="323"
       id="linearGradient4030"
       xlink:href="#linearGradient5884"
       gradientUnits="userSpaceOnUse" />
    <linearGradient
       id="linearGradient4032">
      <stop
         id="stop4034"
         style="stop-color:#202e43;stop-opacity:1"
         offset="0" />
      <stop
         id="stop4036"
         style="stop-color:#3e5982;stop-opacity:1"
         offset="1" />
    </linearGradient>
    <linearGradient
       x1="62"
       y1="403"
       x2="62"
       y2="323"
       id="linearGradient4038"
       xlink:href="#linearGradient5884"
       gradientUnits="userSpaceOnUse" />
    <linearGradient
       id="linearGradient4040">
      <stop
         id="stop4042"
         style="stop-color:#202e43;stop-opacity:1"
         offset="0" />
      <stop
         id="stop4044"
         style="stop-color:#3e5982;stop-opacity:1"
         offset="1" />
    </linearGradient>
    <linearGradient
       x1="62"
       y1="403"
       x2="62"
       y2="323"
       id="linearGradient4061"
       xlink:href="#linearGradient5884"
       gradientUnits="userSpaceOnUse" />
    <linearGradient
       x1="62"
       y1="403"
       x2="62"
       y2="323"
       id="linearGradient4063"
       xlink:href="#linearGradient5884"
       gradientUnits="userSpaceOnUse" />
    <linearGradient
       x1="62"
       y1="403"
       x2="62"
       y2="323"
       id="linearGradient4065"
       xlink:href="#linearGradient5884"
       gradientUnits="userSpaceOnUse" />
    <linearGradient
       x1="62"
       y1="403"
       x2="62"
       y2="323"
       id="linearGradient4067"
       xlink:href="#linearGradient5884"
       gradientUnits="userSpaceOnUse" />
    <linearGradient
       x1="62"
       y1="403"
       x2="62"
       y2="323"
       id="linearGradient4069"
       xlink:href="#linearGradient5884"
       gradientUnits="userSpaceOnUse" />
    <linearGradient
       x1="62"
       y1="403"
       x2="62"
       y2="323"
       id="linearGradient4071"
       xlink:href="#linearGradient5884"
       gradientUnits="userSpaceOnUse" />
    <linearGradient
       x1="62"
       y1="403"
       x2="62"
       y2="323"
       id="linearGradient4073"
       xlink:href="#linearGradient5884"
       gradientUnits="userSpaceOnUse" />
    <linearGradient
       x1="62"
       y1="403"
       x2="62"
       y2="323"
       id="linearGradient4075"
       xlink:href="#linearGradient5884"
       gradientUnits="userSpaceOnUse" />
    <linearGradient
       x1="62"
       y1="403"
       x2="62"
       y2="323"
       id="linearGradient4077"
       xlink:href="#linearGradient5884"
       gradientUnits="userSpaceOnUse" />
    <linearGradient
       x1="62"
       y1="403"
       x2="62"
       y2="323"
       id="linearGradient4079"
       xlink:href="#linearGradient5884"
       gradientUnits="userSpaceOnUse" />
    <linearGradient
       x1="62"
       y1="403"
       x2="62"
       y2="323"
       id="linearGradient4081"
       xlink:href="#linearGradient5884"
       gradientUnits="userSpaceOnUse" />
    <linearGradient
       x1="62"
       y1="403"
       x2="62"
       y2="323"
       id="linearGradient4083"
       xlink:href="#linearGradient5884"
       gradientUnits="userSpaceOnUse" />
    <linearGradient
       x1="62"
       y1="403"
       x2="62"
       y2="323"
       id="linearGradient4085"
       xlink:href="#linearGradient5884"
       gradientUnits="userSpaceOnUse" />
    <linearGradient
       x1="62"
       y1="403"
       x2="62"
       y2="323"
       id="linearGradient4087"
       xlink:href="#linearGradient5884"
       gradientUnits="userSpaceOnUse" />
    <linearGradient
       x1="62"
       y1="403"
       x2="62"
       y2="323"
       id="linearGradient4089"
       xlink:href="#linearGradient5884"
       gradientUnits="userSpaceOnUse" />
  </defs>
  <g
     transform="translate(0,-297)"
     id="layer1">
    <path
       d="m 18,419 74,0 c 18,0 18,-18 18,-18 l 0,-72 c 0,0 -26,-26 -26,-26 l -48,0 c 0,0 -18,0 -18,18 l 0,98 z"
       id="path2832"
       style="opacity:0.9;fill:#000000;fill-opacity:1;stroke:none;filter:url(#filter3610)" />
    <path
       d="m 18,419 74,0 c 18,0 18,-18 18,-18 l 0,-72 c 0,0 -26,-26 -26,-26 l -48,0 c 0,0 -18,0 -18,18 l 0,98 z"
       id="path3627"
       style="fill:#e6e6e6;fill-opacity:1;stroke:none" />
    <path
       d="m 18.456586,419.00634 72.706957,0 c 17.685467,0 17.685467,-17.8583 17.685467,-17.8583 l 0.70844,-71.4332 c 0,0 -26.254119,-25.79532 -26.254119,-25.79532 l -49.050441,-0.2319 c 0,0 -16.504743,0.4638 -16.504743,18.3221 l 0.708439,96.99662 z"
       transform="matrix(0.98017447,0,0,0.99812248,1.4934147,0.7943904)"
       id="path3684"
       style="opacity:0.9;fill:none;stroke:url(#linearGradient3805);stroke-width:0.98750001;stroke-linecap:butt;stroke-linejoin:miter;stroke-miterlimit:4;stroke-opacity:1;stroke-dasharray:none;filter:url(#filter3778)" />
    <path
       d="m 18.456586,419.00634 72.706957,0 c 17.685467,0 17.685467,-17.8583 17.685467,-17.8583 l 0.70844,-71.4332 c 0,0 -26.254119,-25.79532 -26.254119,-25.79532 l -49.050441,-0.2319 c 0,0 -16.504743,0.4638 -16.504743,18.3221 l 0.708439,96.99662 z"
       transform="matrix(0.98017447,0,0,0.99812248,1.4934147,0.7943904)"
       id="path3766"
       style="fill:none;stroke:url(#linearGradient3807);stroke-width:0.98750001;stroke-linecap:butt;stroke-linejoin:miter;stroke-miterlimit:4;stroke-opacity:1;stroke-dasharray:none;filter:url(#filter3702)" />
    <path
       d="M 92.000003,6.0000025 92,24 l 18,3e-6"
       transform="matrix(1.4444444,0,0,1.4444444,-48.888889,294.33333)"
       id="path3639"
       style="opacity:0.6;fill:none;stroke:#333333;stroke-width:1px;stroke-linecap:butt;stroke-linejoin:miter;stroke-opacity:1;filter:url(#filter3676)" />
    <path
       d="m 84,303 0,26 26,0 -26,-26 z"
       id="path3629"
       style="fill:url(#linearGradient2880);fill-opacity:1;stroke:none" />
    <path
       d="m 18,122 74,0 c 18,0 18,-18 18,-18 l 0,-72 C 110,32 84,6 84,6 L 36,6 C 36,6 18,6 18,24 l 0,98 z"
       transform="matrix(0.97617501,0,0,0.99219838,1.5247995,297.03637)"
       id="path3726"
       style="opacity:0.4;fill:none;stroke:url(#linearGradient3811);stroke-width:1px;stroke-linecap:butt;stroke-linejoin:miter;stroke-opacity:1;filter:url(#filter3782)" />
    <path
       d="m 18,122 c 0,-6 18,-6 18,-6 l 56,0 c 16.37975,-0.46293 17.38879,-17.305605 17.38879,-17.305605"
       transform="translate(0,297)"
       id="path3722"
       style="opacity:0.8;fill:none;stroke:#333333;stroke-width:1px;stroke-linecap:butt;stroke-linejoin:miter;stroke-opacity:1;filter:url(#filter3728)" />
    <path
       d="m 18,419 74,0 c 18,0 18,-18 18,-18 0,0 0,-16 0,-16 0,0 0,28 -18,28 l -56,0 c 0,0 -18,0 -18,6 z"
       id="path3822"
       style="fill:url(#linearGradient2876);fill-opacity:1;stroke:none" />
    <g
       id="g3894"
       style="fill:url(#linearGradient4089);fill-opacity:1">
      <rect
         width="72"
         height="2"
         x="28"
         y="365"
         id="rect3738"
         style="fill:url(#linearGradient4061);fill-opacity:1;stroke:none;display:inline;enable-background:new" />
      <rect
         width="72"
         height="2"
         x="28"
         y="371"
         id="rect3742"
         style="fill:url(#linearGradient4063);fill-opacity:1;stroke:none;display:inline;enable-background:new" />
      <rect
         width="72"
         height="2"
         x="28"
         y="377"
         id="rect3744"
         style="fill:url(#linearGradient4065);fill-opacity:1;stroke:none;display:inline;enable-background:new" />
      <rect
         width="72"
         height="2"
         x="28"
         y="383"
         id="rect3748"
         style="fill:url(#linearGradient4067);fill-opacity:1;stroke:none;display:inline;enable-background:new" />
      <rect
         width="72"
         height="2"
         x="28"
         y="389"
         id="rect3750"
         style="fill:url(#linearGradient4069);fill-opacity:1;stroke:none;display:inline;enable-background:new" />
      <rect
         width="72"
         height="2"
         x="28"
         y="395"
         id="rect3752"
         style="fill:url(#linearGradient4071);fill-opacity:1;stroke:none;display:inline;enable-background:new" />
      <rect
         width="72"
         height="2"
         x="28"
         y="401"
         id="rect3756"
         style="fill:url(#linearGradient4073);fill-opacity:1;stroke:none;display:inline;enable-background:new" />
      <rect
         width="72"
         height="2"
         x="28"
         y="359"
         id="rect3738-2"
         style="fill:url(#linearGradient4075);fill-opacity:1;stroke:none;display:inline;enable-background:new" />
      <rect
         width="72"
         height="2"
         x="28"
         y="353"
         id="rect3738-5"
         style="fill:url(#linearGradient4077);fill-opacity:1;stroke:none;display:inline;enable-background:new" />
      <rect
         width="72"
         height="2"
         x="28"
         y="347"
         id="rect3738-2-1"
         style="fill:url(#linearGradient4079);fill-opacity:1;stroke:none;display:inline;enable-background:new" />
      <rect
         width="48"
         height="2"
         x="28"
         y="341"
         id="rect3114"
         style="fill:url(#linearGradient4081);fill-opacity:1;stroke:none;display:inline;enable-background:new" />
      <rect
         width="48"
         height="2"
         x="28"
         y="335"
         id="rect3116"
         style="fill:url(#linearGradient4083);fill-opacity:1;stroke:none;display:inline;enable-background:new" />
      <rect
         width="48"
         height="2"
         x="28"
         y="329"
         id="rect3118"
         style="fill:url(#linearGradient4085);fill-opacity:1;stroke:none;display:inline;enable-background:new" />
      <rect
         width="48"
         height="2"
         x="28"
         y="323"
         id="rect3120"
         style="fill:url(#linearGradient4087);fill-opacity:1;stroke:none;display:inline;enable-background:new" />
    </g>
  </g>
</svg>
