<?xml version="1.0" encoding="UTF-8" standalone="no"?>
<!-- Created with Inkscape (http://www.inkscape.org/) -->

<svg
   xmlns:svg="http://www.w3.org/2000/svg"
   xmlns="http://www.w3.org/2000/svg"
   xmlns:xlink="http://www.w3.org/1999/xlink"
   version="1.1"
   width="128"
   height="128"
   id="svg3722">
  <defs
     id="defs3724">
    <filter
       color-interpolation-filters="sRGB"
       id="filter3610">
      <feGaussianBlur
         id="feGaussianBlur3612"
         stdDeviation="1.56" />
    </filter>
    <linearGradient
       x1="18"
       y1="361"
       x2="110"
       y2="361"
       id="linearGradient3720"
       xlink:href="#linearGradient5884"
       gradientUnits="userSpaceOnUse" />
    <linearGradient
       id="linearGradient5884">
      <stop
         id="stop5886"
         style="stop-color:#778aa6;stop-opacity:1"
         offset="0" />
      <stop
         id="stop5888"
         style="stop-color:#a0afc5;stop-opacity:1"
         offset="1" />
    </linearGradient>
    <linearGradient
       x1="56.65461"
       y1="5.5"
       x2="56.65461"
       y2="122.50977"
       id="linearGradient3805"
       xlink:href="#linearGradient3694"
       gradientUnits="userSpaceOnUse"
       gradientTransform="matrix(0.98252641,0,0,0.9921278,0.77111153,297.96672)" />
    <linearGradient
       id="linearGradient3694">
      <stop
         id="stop3696"
         style="stop-color:#ffffff;stop-opacity:1"
         offset="0" />
      <stop
         id="stop3700"
         style="stop-color:#ffffff;stop-opacity:0.67464113"
         offset="0.5" />
      <stop
         id="stop3698"
         style="stop-color:#ffffff;stop-opacity:0"
         offset="1" />
    </linearGradient>
    <filter
       color-interpolation-filters="sRGB"
       id="filter3778">
      <feGaussianBlur
         id="feGaussianBlur3780"
         stdDeviation="0.51837461" />
    </filter>
    <linearGradient
       x1="56.65461"
       y1="5.5"
       x2="56.65461"
       y2="122.50977"
       id="linearGradient3807"
       xlink:href="#linearGradient3694"
       gradientUnits="userSpaceOnUse"
       gradientTransform="matrix(0.98252641,0,0,0.9921278,0.77111153,297.96672)" />
    <linearGradient
       id="linearGradient3836">
      <stop
         id="stop3838"
         style="stop-color:#ffffff;stop-opacity:1"
         offset="0" />
      <stop
         id="stop3840"
         style="stop-color:#ffffff;stop-opacity:0.67464113"
         offset="0.5" />
      <stop
         id="stop3842"
         style="stop-color:#ffffff;stop-opacity:0"
         offset="1" />
    </linearGradient>
    <filter
       color-interpolation-filters="sRGB"
       id="filter3702">
      <feGaussianBlur
         id="feGaussianBlur3704"
         stdDeviation="0.51369811" />
    </filter>
    <filter
       color-interpolation-filters="sRGB"
       id="filter3676">
      <feGaussianBlur
         id="feGaussianBlur3678"
         stdDeviation="0.36000001" />
    </filter>
    <linearGradient
       x1="102"
       y1="14"
       x2="92"
       y2="24"
       id="linearGradient3393"
       xlink:href="#linearGradient3649"
       gradientUnits="userSpaceOnUse"
       gradientTransform="matrix(1.4444444,0,0,1.4444444,-48.888889,294.33333)" />
    <linearGradient
       id="linearGradient3649">
      <stop
         id="stop3651"
         style="stop-color:#c9c9c9;stop-opacity:1"
         offset="0" />
      <stop
         id="stop3653"
         style="stop-color:#f0f0f0;stop-opacity:1"
         offset="1" />
    </linearGradient>
    <linearGradient
       x1="64"
       y1="122.5"
       x2="64"
       y2="93.860451"
       id="linearGradient3811"
       xlink:href="#linearGradient3758"
       gradientUnits="userSpaceOnUse" />
    <linearGradient
       id="linearGradient3758">
      <stop
         id="stop3760"
         style="stop-color:#333333;stop-opacity:1"
         offset="0" />
      <stop
         id="stop3762"
         style="stop-color:#333333;stop-opacity:0"
         offset="1" />
    </linearGradient>
    <filter
       color-interpolation-filters="sRGB"
       id="filter3782">
      <feGaussianBlur
         id="feGaussianBlur3784"
         stdDeviation="1.0410113" />
    </filter>
    <filter
       color-interpolation-filters="sRGB"
       id="filter3728">
      <feGaussianBlur
         id="feGaussianBlur3730"
         stdDeviation="0.57810125" />
    </filter>
    <linearGradient
       x1="62"
       y1="413"
       x2="62"
       y2="419"
       id="linearGradient3388"
       xlink:href="#linearGradient3636"
       gradientUnits="userSpaceOnUse" />
    <linearGradient
       id="linearGradient3636">
      <stop
         id="stop3638"
         style="stop-color:#3988c5;stop-opacity:1"
         offset="0" />
      <stop
         id="stop3644"
         style="stop-color:#347cb4;stop-opacity:1"
         offset="0.5" />
      <stop
         id="stop3640"
         style="stop-color:#2a628d;stop-opacity:1"
         offset="1" />
    </linearGradient>
    <linearGradient
       x1="62"
       y1="413"
       x2="62"
       y2="419"
       id="linearGradient3875"
       xlink:href="#linearGradient3636"
       gradientUnits="userSpaceOnUse" />
    <linearGradient
       x1="2128.5525"
       y1="15026.778"
       x2="2128.5525"
       y2="14844.775"
       id="linearGradient3836-4"
       xlink:href="#linearGradient7985"
       gradientUnits="userSpaceOnUse"
       gradientTransform="matrix(-0.25635421,0,0,0.25321235,593.66341,-3728.0457)" />
    <linearGradient
       id="linearGradient7985">
      <stop
         id="stop7991"
         style="stop-color:#42699a;stop-opacity:1"
         offset="0" />
      <stop
         id="stop7989"
         style="stop-color:#99b8e1;stop-opacity:1"
         offset="1" />
    </linearGradient>
    <clipPath
       id="clipPath3939">
      <path
         d="m 71.96875,20 c -4.31369,1.765545 -18.15511,7.512771 -18.5,7.65625 -3.87007,-3.150175 -8.91154,-5.598136 -14.125,-5.875 -12.646312,-0.79267 -24.276266,10.394649 -24.3125,22.8125 -0.555181,11.179767 4.562738,21.528517 9.1875,31.40625 3.869087,-1.608909 17.95778,-7.445809 18.3125,-7.59375 3.79832,3.163745 8.648,5.478371 13.71875,5.84375 12.44374,1.040719 24.02407,-9.655493 24.65625,-21.78125 0.90325,-11.34272 -4.34426,-21.857746 -8.75,-32 C 72.09205,20.31052 72.03275,20.158246 71.96875,20 z m -34.25,7.3125 c 9.1497,-0.0011 17.20052,7.683466 17.625,14.0625 0.35572,5.345489 -1.411472,12.956485 -10.15625,13.96875 0.323717,0.862924 0.769457,1.770109 1.40625,2.65625 L 41.5,58 c -0.414177,-0.963437 -0.667923,-1.931712 -0.78125,-2.875 -4.223212,-1.121554 -7.97654,-5.098816 -8,-10.625 -0.03,-7.05132 8.82761,-7.732626 11.0625,-5.9375 0.86811,0.6973 0.83057,2.061607 0.0625,1.8125 -4.771791,-1.54858 -7.718924,1.526099 -7.5,4.5625 0.228202,3.163498 1.729509,5.344922 4.40625,6.28125 C 40.879081,50.143407 41.104866,49.054163 41.46875,48 l 4.3125,0 c -0.716657,1.252471 -1.077422,2.609534 -1.1875,3.6875 5.441954,-0.419155 6.996019,-5.969325 6.84375,-8.3125 -0.197,-3.033212 -2.84006,-9.297777 -11.09375,-10.4375 -3.897197,-0.537566 -7.109473,0.626374 -9.46875,2.90625 -2.359231,2.280077 -3.712465,4.663674 -3.90625,8.53125 -0.200416,4.000368 0.693285,6.345255 3.09375,11.59375 0.857436,1.874456 3.238989,5.650541 5.09375,9.4375 L 27.125,68.75 C 24.395973,62.165489 20.767922,56.378596 20.6875,45.625 20.60442,34.514732 30.161498,27.313359 37.71875,27.3125 z"
         id="path3941"
         style="opacity:0.47186148;fill:#00ffff;fill-opacity:1;fill-rule:evenodd;stroke:none" />
    </clipPath>
  </defs>
  <g
     transform="translate(0,-297)"
     id="layer1">
    <g
       id="g3799">
      <path
         d="m 18,419 74,0 c 18,0 18,-18 18,-18 l 0,-72 c 0,0 -26,-26 -26,-26 l -48,0 c 0,0 -18,0 -18,18 l 0,98 z"
         id="path2832"
         style="opacity:0.9;fill:#000000;fill-opacity:1;stroke:none;filter:url(#filter3610)" />
      <path
         d="m 18,419 74,0 c 18,0 18,-18 18,-18 l 0,-72 c 0,0 -26,-26 -26,-26 l -48,0 c 0,0 -18,0 -18,18 l 0,98 z"
         id="path3627"
         style="fill:#e6e6e6;fill-opacity:1;stroke:url(#linearGradient3720)" />
      <path
         d="m 18.456586,419.00634 72.706957,0 c 17.685467,0 17.685467,-17.8583 17.685467,-17.8583 l 0.70844,-71.4332 c 0,0 -26.254119,-25.79532 -26.254119,-25.79532 l -49.050441,-0.2319 c 0,0 -16.504743,0.4638 -16.504743,18.3221 l 0.708439,96.99662 z"
         transform="matrix(0.98017447,0,0,0.99812248,1.4934147,0.7943904)"
         id="path3684"
         style="opacity:0.9;fill:none;stroke:url(#linearGradient3805);stroke-width:0.98750001;stroke-linecap:butt;stroke-linejoin:miter;stroke-miterlimit:4;stroke-opacity:1;stroke-dasharray:none;filter:url(#filter3778)" />
      <path
         d="m 18.456586,419.00634 72.706957,0 c 17.685467,0 17.685467,-17.8583 17.685467,-17.8583 l 0.70844,-71.4332 c 0,0 -26.254119,-25.79532 -26.254119,-25.79532 l -49.050441,-0.2319 c 0,0 -16.504743,0.4638 -16.504743,18.3221 l 0.708439,96.99662 z"
         transform="matrix(0.98017447,0,0,0.99812248,1.4934147,0.7943904)"
         id="path3766"
         style="fill:none;stroke:url(#linearGradient3807);stroke-width:0.98750001;stroke-linecap:butt;stroke-linejoin:miter;stroke-miterlimit:4;stroke-opacity:1;stroke-dasharray:none;filter:url(#filter3702)" />
      <path
         d="M 92.000003,6.0000025 92,24 l 18,3e-6"
         transform="matrix(1.4444444,0,0,1.4444444,-48.888889,294.33333)"
         id="path3639"
         style="opacity:0.6;fill:none;stroke:#333333;stroke-width:1px;stroke-linecap:butt;stroke-linejoin:miter;stroke-opacity:1;filter:url(#filter3676)" />
      <path
         d="m 84,303 0,26 26,0 -26,-26 z"
         id="path3629"
         style="fill:url(#linearGradient3393);fill-opacity:1;stroke:none" />
      <path
         d="m 18,122 74,0 c 18,0 18,-18 18,-18 l 0,-72 C 110,32 84,6 84,6 L 36,6 C 36,6 18,6 18,24 l 0,98 z"
         transform="matrix(0.97617501,0,0,0.99219838,1.5247995,297.03637)"
         id="path3726"
         style="opacity:0.4;fill:none;stroke:url(#linearGradient3811);stroke-width:1px;stroke-linecap:butt;stroke-linejoin:miter;stroke-opacity:1;filter:url(#filter3782)" />
      <path
         d="m 18,419 c 0,-6 18,-6 18,-6 l 56,0 c 16.37975,-0.46293 17.38879,-17.30561 17.38879,-17.30561"
         id="path3722"
         style="opacity:0.8;fill:none;stroke:#333333;stroke-width:1px;stroke-linecap:butt;stroke-linejoin:miter;stroke-opacity:1;filter:url(#filter3728)" />
      <path
         d="m 18,419 74,0 c 18,0 18,-18 18,-18 0,0 0,-16 0,-16 0,0 0,28 -18,28 l -56,0 c 0,0 -18,0 -18,6 z"
         id="path3822"
         style="fill:url(#linearGradient3875);fill-opacity:1;stroke:none" />
    </g>
    <g
       transform="matrix(1.2099576,0,0,1.2099576,5.922979,313.83095)"
       id="layer3"
       style="display:inline">
      <path
         d="M 71.964297,20 C 67.650605,21.765545 53.817801,27.514769 53.472912,27.658248 49.60284,24.508073 44.569278,22.060489 39.355824,21.783625 26.709512,20.990955 15.077725,32.184785 15.041491,44.602636 14.48631,55.782403 19.605617,66.122267 24.230379,76 c 3.869087,-1.608909 17.937834,-7.453672 18.292553,-7.601613 3.798314,3.163745 8.662879,5.495088 13.733629,5.860467 C 68.700303,75.299573 80.265362,64.58482 80.897535,52.459063 81.800789,41.116343 76.554672,30.623554 72.148927,20.4813 72.084767,20.32307 72.028301,20.158246 71.964297,20 z"
         id="path3603"
         style="fill:url(#linearGradient3836-4);fill-opacity:1;fill-rule:evenodd;stroke:none;display:inline" />
      <path
         d="M 27.115127,68.754933 C 24.3861,62.170422 20.768093,56.367661 20.687671,45.614065 c -0.08308,-11.110268 9.478788,-18.303362 17.03604,-18.304221 9.149701,-0.0011 17.199961,7.700296 17.62444,14.07933 0.383092,5.756785 -1.672192,14.129153 -12.280714,14.066923 -5.065365,-0.0293 -10.328715,-4.421398 -10.356456,-10.955886 -0.03,-7.05132 8.832444,-7.739218 11.067326,-5.944092 0.868115,0.6973 0.841574,2.077159 0.07355,1.828052 -4.771788,-1.54858 -7.719741,1.503447 -7.500817,4.539848 0.297193,4.119905 2.749492,6.571062 7.145405,6.779546 6.341126,0.300221 8.116342,-5.84659 7.954222,-8.34136 -0.197,-3.033212 -2.850346,-9.271757 -11.104038,-10.41148 -3.897196,-0.537566 -7.12708,0.625897 -9.486357,2.905773 -2.359231,2.280077 -3.685611,4.637796 -3.879396,8.505372 -0.200416,4.000368 0.675838,6.347596 3.076303,11.596091 0.857436,1.874456 3.25247,5.656278 5.107231,9.443237 l -8.049246,3.353735 z"
         id="path3607"
         style="fill:#eeeeec;fill-opacity:1;fill-rule:evenodd;stroke:none;display:inline" />
      <path
         d="m 68.5625,26.5625 c -2.87878,1.158518 -5.785376,2.351718 -8.625,3.59375 -1.067632,0.625532 -1.016957,2.096906 -0.291805,2.982248 2.621789,5.198003 6.092081,10.087057 7.427112,15.83825 0.594136,3.591759 0.264234,7.775033 -2.553672,10.408872 -2.23686,2.664477 -5.961298,3.638813 -9.29531,2.880623 C 50.80765,61.653925 46.779421,58.109124 46.3125,53.5625 c -0.0064,-2.952997 1.931463,-6.377471 5.20054,-6.431386 2.457112,-0.232807 5.407127,0.791221 6.088698,3.423592 0.872711,1.959452 -0.03769,4.652035 -2.425711,4.803463 -1.73,0.267013 -4.183061,-1.447706 -5.135987,0.863861 -0.882603,2.294774 1.324223,4.447607 3.505865,4.687251 4.400405,0.865834 9.714832,-1.22758 11.108295,-5.773277 1.704311,-6.284031 -2.638836,-13.322211 -8.901682,-14.907189 -5.390483,-1.278648 -11.837506,0.650409 -14.723846,5.609895 -2.138899,3.720353 -2.730084,8.344971 -1.655238,12.491295 2.060509,6.174134 7.730525,10.697533 13.859352,12.47384 5.7603,1.777608 12.175531,0.0458 16.669848,-3.850278 4.906146,-4.031649 7.599409,-10.47743 7.133281,-16.799678 C 76.917528,43.441333 74.805514,36.959837 71.948698,30.943633 71.240861,29.70402 70.996404,28.172484 70.09375,27.0625 c -0.401636,-0.408936 -0.968701,-0.554257 -1.53125,-0.5 z"
         id="path3880"
         style="opacity:0.05;fill:#000000;fill-opacity:1;fill-rule:evenodd;stroke:none;display:inline" />
      <path
         d="m 68.78125,27.4375 a 0.86839633,0.86839633 0 0 0 -0.25,0.0625 L 60.5,30.84375 a 0.86839633,0.86839633 0 0 0 -0.4375,1.1875 c 1.883611,3.846395 4.305923,7.714605 5.09375,9.4375 2.393145,5.232507 3.193101,7.36416 3,11.21875 -0.184538,3.682705 -1.361031,5.718077 -3.625,7.90625 -2.182235,2.108823 -5.084922,3.162016 -8.75,2.65625 -3.925717,-0.541678 -6.440414,-2.253155 -8.03125,-4.1875 -1.590836,-1.934345 -2.227771,-4.132933 -2.3125,-5.4375 -0.06489,-0.998557 0.292176,-3.044647 1.375,-4.65625 1.082824,-1.611603 2.767815,-2.855503 5.65625,-2.71875 2.044663,0.09697 3.506088,0.703399 4.53125,1.6875 1.025162,0.984101 1.644157,2.380676 1.78125,4.28125 0.08787,1.21857 -0.435301,2.446752 -1.5,3.21875 -1.064699,0.771998 -2.666662,1.14412 -4.84375,0.4375 -0.415258,-0.134567 -1.023205,-0.05832 -1.34375,0.28125 -0.320545,0.339572 -0.377725,0.746825 -0.375,1.09375 0.0055,0.69385 0.314411,1.411903 0.96875,1.9375 0.797959,0.641016 1.897804,0.913792 3.15625,1 1.258446,0.08621 2.667047,-0.04669 4.03125,-0.5 2.728406,-0.906617 5.297797,-3.235747 5.28125,-7.125 -0.02971,-6.997759 -5.653452,-11.811569 -11.21875,-11.84375 -5.533748,-0.03268 -9.06326,2.242783 -11,5.28125 -1.93674,3.038467 -2.356476,6.740719 -2.15625,9.75 0.234849,3.529053 2.496336,7.195901 5.84375,10.03125 3.347414,2.835349 7.838229,4.84454 12.65625,4.84375 8.108833,-4.43e-4 17.993074,-7.576522 17.90625,-19.1875 -0.08188,-10.946777 -3.80627,-16.969039 -6.5,-23.46875 A 0.86839633,0.86839633 0 0 0 68.78125,27.4375 z"
         id="path3875"
         style="opacity:0.1;fill:#000000;fill-opacity:1;fill-rule:evenodd;stroke:none;display:inline" />
      <path
         d="m 68.884872,28.309844 c 2.729059,6.584956 6.347034,12.387486 6.427472,23.141315 0.08308,11.110265 -9.478818,18.303361 -17.036041,18.303774 -9.149715,0.0015 -17.199975,-7.700081 -17.62444,-14.07847 -0.383076,-5.757415 1.672177,-14.129998 12.28073,-14.067353 5.065365,0.02929 10.328716,4.421413 10.356456,10.955685 0.03,7.051105 -8.83246,7.739417 -11.067342,5.944093 -0.868099,-0.6973 -0.841604,-2.076945 -0.07355,-1.828052 4.771774,1.54878 7.719697,-1.503662 7.500771,-4.539864 -0.297177,-4.119888 -2.749461,-6.570617 -7.145374,-6.779102 -6.341112,-0.300219 -8.116342,5.846805 -7.954237,8.341147 0.197001,3.033195 2.850331,9.27217 11.104068,10.411036 3.897182,0.537795 7.127066,-0.625667 9.486311,-2.905545 2.359277,-2.28029 3.685673,-4.638009 3.879443,-8.504943 0.200415,-4.000579 -0.675869,-6.347594 -3.076334,-11.596106 -0.857419,-1.875085 -3.252484,-5.656062 -5.107199,-9.443451 l 8.049215,-3.354164 z"
         id="path3871"
         style="opacity:0.2;fill:#000000;fill-opacity:1;fill-rule:evenodd;stroke:none;display:inline" />
      <path
         d="m 68.884872,27.309844 c 2.729059,6.584956 6.347034,12.387486 6.427472,23.141315 0.08308,11.110265 -9.478818,18.303361 -17.036041,18.303774 -9.149715,0.0015 -17.199975,-7.700081 -17.62444,-14.07847 -0.383076,-5.757415 1.672177,-14.129998 12.28073,-14.067353 5.065365,0.02929 10.328716,4.421413 10.356456,10.955685 0.03,7.051105 -8.83246,7.739417 -11.067342,5.944093 -0.868099,-0.6973 -0.841604,-2.076945 -0.07355,-1.828052 4.771774,1.54878 7.719697,-1.503662 7.500771,-4.539864 -0.297177,-4.119888 -2.749461,-6.570617 -7.145374,-6.779102 -6.341112,-0.300219 -8.116342,5.846805 -7.954237,8.341147 0.197001,3.033195 2.850331,9.27217 11.104068,10.411036 3.897182,0.537795 7.127066,-0.625667 9.486311,-2.905545 2.359277,-2.28029 3.685673,-4.638009 3.879443,-8.504943 0.200415,-4.000579 -0.675869,-6.347594 -3.076334,-11.596106 -0.857419,-1.875085 -3.252484,-5.656062 -5.107199,-9.443451 l 8.049215,-3.354164 z"
         id="path3611"
         style="fill:#a9c4e3;fill-opacity:1;fill-rule:evenodd;stroke:none;display:inline" />
      <path
         d="m 37.710725,27.286397 c -7.557252,8.58e-4 -17.10366,7.196314 -17.020561,18.306582 0.08047,10.753597 3.713782,16.562292 6.442812,23.146802 L 35.16245,65.385172 C 34.445516,63.921366 33.66104,62.52036 32.902657,61.16795 l -1.778985,0 0,-3.21084 c -0.437034,-0.78468 -0.817094,-1.486595 -1.057774,-2.012767 -2.400466,-5.248494 -3.277581,-7.596996 -3.077164,-11.597363 0.193785,-3.867576 1.535304,-6.202293 3.894535,-8.482368 2.359277,-2.279878 5.574697,-3.460869 9.471895,-2.923304 3.90315,0.538977 6.539065,2.228013 8.269878,4.169302 l 1.634743,0 0,2.396148 c 0.744166,1.431954 1.135642,2.811968 1.202016,3.83384 0.07201,1.108377 -0.278729,2.936152 -1.202016,4.600607 l 0,5.702836 C 54.645082,50.87699 55.62859,45.466844 55.356336,41.375754 54.931857,34.996721 46.860426,27.285337 37.710725,27.286397 z"
         id="path3613"
         style="fill:#eeeeec;fill-opacity:1;fill-rule:evenodd;stroke:none;display:inline" />
      <path
         d="M 15,46.9375 C 14.894583,57.604667 19.779519,67.518531 24.21875,77 c 3.869087,-1.608909 17.957781,-7.445809 18.3125,-7.59375 3.798314,3.163745 8.648,5.478371 13.71875,5.84375 12.443742,1.040719 24.024077,-9.655493 24.65625,-21.78125 0.07667,-0.962805 0.101418,-1.924137 0.09375,-2.875 -0.01358,0.620591 -0.04393,1.24932 -0.09375,1.875 C 80.274077,64.594507 68.693742,75.290719 56.25,74.25 51.17925,73.884621 46.329564,71.569995 42.53125,68.40625 42.176531,68.554191 28.087837,74.391091 24.21875,76 19.917999,66.814302 15.194962,57.226293 15,46.9375 z"
         id="path3838"
         style="fill:#ffffff;fill-opacity:1;fill-rule:evenodd;stroke:none;display:inline" />
      <path
         d="m 71.96875,20 c -4.313692,1.765545 -18.155111,7.512771 -18.5,7.65625 -3.870072,-3.150175 -8.911546,-5.598136 -14.125,-5.875 -12.646312,-0.79267 -24.276266,10.394649 -24.3125,22.8125 -0.555181,11.179767 4.562738,21.528517 9.1875,31.40625 3.869087,-1.608909 17.957781,-7.445809 18.3125,-7.59375 3.798314,3.163745 8.648,5.478371 13.71875,5.84375 12.443742,1.040719 24.024077,-9.655493 24.65625,-21.78125 0.903254,-11.34272 -4.344255,-21.857746 -8.75,-32 C 72.09209,20.31052 72.032754,20.158246 71.96875,20 z m -0.875,2.15625 c 4.314639,9.861179 9.015698,19.787299 8.1875,30.1875 a 1.6425204,1.6425204 0 0 0 0,0.03125 C 78.700756,63.509499 67.803058,73.580773 56.375,72.625 51.725298,72.28996 47.166511,70.132124 43.59375,67.15625 A 1.6425204,1.6425204 0 0 0 41.90625,66.875 c -0.239281,0.0998 -11.906659,4.949894 -16.84375,7 C 20.635517,64.430949 16.153682,54.80779 16.65625,44.6875 A 1.6425204,1.6425204 0 0 0 16.6875,44.59375 C 16.72075,33.198442 27.629337,22.677868 39.25,23.40625 c 4.757503,0.25265 9.535939,2.558939 13.1875,5.53125 a 1.6425204,1.6425204 0 0 0 1.65625,0.25 c 0.291615,-0.121316 11.762861,-4.876464 17,-7.03125 z"
         id="path3855"
         style="opacity:0.1;fill:#000000;fill-opacity:1;fill-rule:evenodd;stroke:none;display:inline" />
      <path
         d="m 71.96875,20 c -4.313692,1.765545 -18.155111,7.512771 -18.5,7.65625 -3.870072,-3.150175 -8.911546,-5.598136 -14.125,-5.875 -12.646312,-0.79267 -24.276266,10.394649 -24.3125,22.8125 -0.555181,11.179767 4.562738,21.528517 9.1875,31.40625 3.869087,-1.608909 17.957781,-7.445809 18.3125,-7.59375 3.798314,3.163745 8.648,5.478371 13.71875,5.84375 12.443742,1.040719 24.024077,-9.655493 24.65625,-21.78125 0.903254,-11.34272 -4.344255,-21.857746 -8.75,-32 C 72.09209,20.31052 72.032754,20.158246 71.96875,20 z m -0.375,0.96875 c 4.39543,10.098537 9.470166,20.431804 8.59375,31.4375 a 0.72935447,0.72935447 0 0 0 0,0.03125 C 79.578275,64.123093 68.305232,74.534249 56.3125,73.53125 51.428715,73.179343 46.698158,70.924072 43,67.84375 a 0.72935447,0.72935447 0 0 0 -0.75,-0.125 C 41.948574,67.844465 29.007605,73.197255 24.59375,75.03125 20.050399,65.343125 15.218722,55.323422 15.75,44.625 a 0.72935447,0.72935447 0 0 0 0,-0.03125 C 15.784909,32.629955 27.121623,21.735877 39.3125,22.5 44.323491,22.766112 49.226957,25.147555 53,28.21875 a 0.72935447,0.72935447 0 0 0 0.75,0.125 c 0.320809,-0.133461 13.062415,-5.412603 17.84375,-7.375 z"
         id="path3847"
         style="opacity:0.15;fill:#000000;fill-opacity:1;fill-rule:evenodd;stroke:none;display:inline" />
      <path
         d="m 71.96875,20 c -4.313692,1.765545 -18.155111,7.512771 -18.5,7.65625 -3.870072,-3.150175 -8.911546,-5.598136 -14.125,-5.875 -12.646312,-0.79267 -24.276266,10.394649 -24.3125,22.8125 -0.01657,0.33365 0.0066,0.667836 0,1 0.03623,-12.417851 11.666188,-23.60517 24.3125,-22.8125 5.213454,0.276864 10.254928,2.724825 14.125,5.875 0.344889,-0.143479 14.186308,-5.890705 18.5,-7.65625 0.064,0.158246 0.12334,0.31052 0.1875,0.46875 3.855027,8.874472 8.353235,18.035465 8.8125,27.78125 C 80.784384,39.128875 76.142762,29.645909 72.15625,20.46875 72.09209,20.31052 72.032754,20.158246 71.96875,20 z"
         id="path3862"
         style="opacity:0.2;fill:#000000;fill-opacity:1;fill-rule:evenodd;stroke:none;display:inline" />
      <g
         clip-path="url(#clipPath3939)"
         id="g3896"
         style="display:inline">
        <path
           d="m 37.71875,26.34375 c -8.805966,0.001 -19.091605,8.030916 -19,20.28125 0.08374,11.197712 3.914821,17.518012 6.5625,23.90625 -0.0012,-0.0027 0.09517,0.190084 0.09375,0.1875 -0.0014,-0.0026 0.09541,0.158683 0.09375,0.15625 -0.0017,-0.0024 0.126895,0.158508 0.125,0.15625 -0.0019,-0.0023 0.127108,0.15831 0.125,0.15625 -0.0021,-0.0021 0.15855,0.126843 0.15625,0.125 -0.0023,-0.0018 0.15872,0.09536 0.15625,0.09375 -0.0025,-0.0016 0.190116,0.126358 0.1875,0.125 -0.0026,-0.0014 0.158987,0.0636 0.15625,0.0625 -0.0027,-0.0011 0.190331,0.06332 0.1875,0.0625 -0.0028,-8.21e-4 0.190398,0.06304 0.1875,0.0625 -0.0029,-5.39e-4 0.221687,0.0315 0.21875,0.03125 -0.0029,-2.51e-4 0.190448,-3.8e-5 0.1875,0 -0.0029,3.8e-5 0.190429,-0.03158 0.1875,-0.03125 -0.0029,3.28e-4 0.190383,-0.03186 0.1875,-0.03125 -0.0029,6.14e-4 0.190309,-0.03214 0.1875,-0.03125 -0.0028,8.94e-4 0.190208,-0.06367 0.1875,-0.0625 L 35.9375,68.25 a 1.0404981,1.0404981 0 0 0 0.03125,-0.03125 c -0.0027,0.0012 0.158853,-0.06399 0.15625,-0.0625 -0.0026,0.0015 0.189941,-0.126741 0.1875,-0.125 -0.0024,0.0017 0.158505,-0.126977 0.15625,-0.125 -0.0023,0.002 0.127046,-0.127192 0.125,-0.125 -0.002,0.0022 0.126817,-0.158635 0.125,-0.15625 -0.0018,0.0024 0.126569,-0.158805 0.125,-0.15625 -0.0016,0.0026 0.09506,-0.190199 0.09375,-0.1875 -0.0013,0.0027 0.06353,-0.190316 0.0625,-0.1875 -10e-4,0.0028 0.06324,-0.190405 0.0625,-0.1875 -7.44e-4,0.0029 0.06295,-0.190464 0.0625,-0.1875 -4.5e-4,0.003 1.52e-4,-0.221745 0,-0.21875 -1.52e-4,0.003 -1.48e-4,-0.190495 0,-0.1875 1.48e-4,0.003 -4.47e-4,-0.190465 0,-0.1875 4.47e-4,0.003 -0.06324,-0.221655 -0.0625,-0.21875 7.41e-4,0.0029 -0.06353,-0.190317 -0.0625,-0.1875 10e-4,0.0028 -0.0638,-0.15895 -0.0625,-0.15625 a 1.0404981,1.0404981 0 0 0 0,-0.03125 C 35.019501,61.615173 32.569631,57.643545 31.875,56.125 29.486875,50.903487 28.753491,49.172882 28.9375,45.5 c 0.173438,-3.461508 1.165378,-5.143666 3.3125,-7.21875 1.961168,-1.895165 4.440096,-2.840178 7.8125,-2.375 3.667635,0.50645 5.878929,2.069475 7.3125,3.8125 1.423504,1.730785 2.028067,3.769938 2.09375,4.78125 0.04039,0.621572 -0.314309,2.616851 -1.21875,3.96875 -0.934297,1.396527 -2.117795,2.401433 -4.65625,2.28125 -1.841573,-0.08734 -3.036691,-0.631516 -3.84375,-1.40625 -0.805974,-0.773693 -1.314838,-1.830826 -1.4375,-3.53125 -0.05957,-0.826182 0.332813,-1.693731 1.09375,-2.25 0.769488,-0.562519 1.934042,-0.901005 3.84375,-0.28125 0.883934,0.286702 1.771076,0.114016 2.46875,-0.625 0.55885,-0.591966 0.691393,-1.347166 0.6875,-1.84375 -0.008,-1.022948 -0.466417,-2.082694 -1.375,-2.8125 -1.069567,-0.859109 -2.43048,-1.155317 -3.8125,-1.25 -1.409408,-0.09656 -2.928471,0.0611 -4.4375,0.5625 -3.072669,1.020947 -6.049891,3.806258 -6.03125,8.1875 0.03224,7.59515 6.10689,12.901604 12.3125,12.9375 5.839423,0.03425 9.803422,-2.401916 11.9375,-5.75 2.121203,-3.327885 2.523501,-7.266748 2.3125,-10.4375 -0.263154,-3.954643 -2.697161,-7.829763 -6.21875,-10.8125 -3.525681,-2.986203 -8.247691,-5.094366 -13.375,-5.09375 z"
           id="path3894"
           style="opacity:0.05;fill:#000000;fill-opacity:1;fill-rule:evenodd;stroke:none" />
        <path
           d="m 37.71875,27.375 c -8.160924,9.28e-4 -18.055928,7.591683 -17.96875,19.25 0.082,10.964793 3.809634,17.008769 6.5,23.5 a 0.95049533,0.95049533 0 0 0 1.25,0.5 l 8.03125,-3.34375 A 0.95049533,0.95049533 0 0 0 36,66 c -1.886344,-3.851445 -4.281139,-7.729352 -5.0625,-9.4375 -2.393042,-5.232265 -3.223672,-7.284187 -3.03125,-11.125 0.183695,-3.666209 1.373185,-5.729985 3.625,-7.90625 2.165517,-2.092637 5.04429,-3.158782 8.6875,-2.65625 3.906729,0.539466 6.389841,2.267764 7.96875,4.1875 1.578909,1.919736 2.229073,4.09048 2.3125,5.375 0.06336,0.975065 -0.303611,3.023557 -1.375,4.625 -1.071389,1.601443 -2.733514,2.854168 -5.59375,2.71875 -2.030171,-0.09628 -3.491599,-0.719488 -4.5,-1.6875 -1.008401,-0.968012 -1.613986,-2.333232 -1.75,-4.21875 -0.08581,-1.190146 0.456822,-2.393655 1.5,-3.15625 1.043178,-0.762595 2.625658,-1.137051 4.78125,-0.4375 0.436346,0.141528 1.064606,0.01814 1.40625,-0.34375 0.341644,-0.361889 0.40908,-0.764044 0.40625,-1.125 -0.0057,-0.721912 -0.324783,-1.457642 -1,-2 -0.820571,-0.659108 -1.949514,-0.944294 -3.21875,-1.03125 -1.269236,-0.08696 -2.687026,0.07422 -4.0625,0.53125 -2.750948,0.91405 -5.329194,3.263768 -5.3125,7.1875 0.02989,7.041777 5.668718,11.873785 11.28125,11.90625 5.555432,0.03259 9.112092,-2.22132 11.0625,-5.28125 1.950408,-3.05993 2.357308,-6.791166 2.15625,-9.8125 -0.236991,-3.561474 -2.514538,-7.247485 -5.875,-10.09375 -3.360462,-2.846265 -7.846545,-4.844332 -12.6875,-4.84375 z"
           id="path3890"
           style="opacity:0.1;fill:#000000;fill-opacity:1;fill-rule:evenodd;stroke:none" />
        <path
           d="M 27.115127,69.754933 C 24.3861,63.170422 20.768093,57.367661 20.687671,46.614065 c -0.08308,-11.110268 9.478788,-18.303362 17.03604,-18.304221 9.149701,-0.0011 17.199961,7.700296 17.62444,14.07933 0.383092,5.756785 -1.672192,14.129153 -12.280714,14.066923 -5.065365,-0.0293 -10.328715,-4.421398 -10.356456,-10.955886 -0.03,-7.05132 8.832444,-7.739218 11.067326,-5.944092 0.868115,0.6973 0.841574,2.077159 0.07355,1.828052 -4.771788,-1.54858 -7.719741,1.503447 -7.500817,4.539848 0.297193,4.119905 2.749492,6.571062 7.145405,6.779546 6.341126,0.300221 8.116342,-5.84659 7.954222,-8.34136 -0.197,-3.033212 -2.850346,-9.271757 -11.104038,-10.41148 -3.897196,-0.537566 -7.12708,0.625897 -9.486357,2.905773 -2.359231,2.280077 -3.685611,4.637796 -3.879396,8.505372 -0.200416,4.000368 0.675838,6.347596 3.076303,11.596091 0.857436,1.874456 3.25247,5.656278 5.107231,9.443237 l -8.049246,3.353735 z"
           id="path3886"
           style="opacity:0.2;fill:#000000;fill-opacity:1;fill-rule:evenodd;stroke:none" />
      </g>
    </g>
  </g>
</svg>
